{
  "version": 2,
  "name": "party-planner",
  "builds": [{ "src": "next.config.js", "use": "@now/next" }],

  "routes": [
    {
      "src": "/service-worker.js",
      "dest": "/static/service-worker.js",
      "headers": {
        "cache-control": "public, max-age=43200, immutable",
        "Service-Worker-Allowed": "/"
      }
    },
    {
      "src": "/forgot-password",
      "dest": "/auth-forgot-password"
    },
    {
      "src": "/login",
      "dest": "/auth-login"
    },
    {
      "src": "/register",
      "dest": "/auth-register"
    },
    {
      "src": "/auth/social/success",
      "dest": "/auth-social-success"
    },
    {
      "src": "/auth/social/reauth/success",
      "dest": "/auth-social-reauth-success"
    },
    {
      "src": "/auth/social/error",
      "dest": "/auth-social-error"
    },
    {
      "src": "/reset-password/(?<token>[^/]+)",
      "dest": "/auth-reset-password?token=$token"
    },
    {
      "src": "/party/chats",
      "dest": "/party-chats"
    },
    {
      "src": "/party/chats/(?<chat>[^/]+)",
      "dest": "/party-chats?chat=$chat"
    },
    {
      "src": "/party/create",
      "dest": "/party-create"
    },
    {
      "src": "/party/parties",
      "dest": "/party-parties"
    },
    {
      "src": "/party/(?<id>[^/]+)/cart",
      "dest": "/party-cart?id=$id"
    },
    {
      "src": "/party/(?<id>[^/]+)/music/discover",
      "dest": "/party-music-discover?id=$id"
    },
    {
      "src": "/party/(?<id>[^/]+)/music/browse",
      "dest": "/party-music-browse?id=$id"
    },
    {
      "src": "/party/(?<id>[^/]+)/music/tracks",
      "dest": "/party-music-saved-tracks?id=$id"
    },
    {
      "src": "/party/(?<id>[^/]+)/music/playlists",
      "dest": "/party-music-playlists?id=$id"
    },
    {
      "src": "/party/(?<id>[^/]+)/music/top",
      "dest": "/party-music-top?id=$id"
    },
    {
      "src": "/party/(?<id>[^/]+)",
      "dest": "/party-dashboard?id=$id"
    },
    {
      "src": "/party/join/(?<token>[^/]+)",
      "dest": "/party-join?token=$token"
    },
    {
      "src": "/user/calendar",
      "dest": "/user-calendar"
    },
    {
      "src": "/user/dashboard",
      "dest": "/user-dashboard"
    },
    {
      "src": "/user/people",
      "dest": "/user-people"
    },
    {
      "src": "/user/profile",
      "dest": "/user-profile"
    }
  ]
}
